EESchema Schematic File Version 4
EELAYER 30 0
EELAYER END
$Descr A4 11693 8268
encoding utf-8
Sheet 1 1
Title ""
Date ""
Rev ""
Comp ""
Comment1 ""
Comment2 ""
Comment3 ""
Comment4 ""
$EndDescr
$Comp
L MCU_Module:ESP32-DevKitC-V4 U1
U 1 1 5F3674DD
P 9200 1000
F 0 "U1" H 9775 1075 50  0000 C CNN
F 1 "ESP32-DevKitC-V4" H 9775 984 50  0000 C CNN
F 2 "Package_DIP:DIP-38_W25.4mm" H 9200 1000 50  0001 C CNN
F 3 "" H 9200 1000 50  0001 C CNN
	1    9200 1000
	1    0    0    -1  
$EndComp
$Comp
L Transistor_BJT:BC337 Q1
U 1 1 5F3686F1
P 2000 6200
F 0 "Q1" H 2191 6246 50  0000 L CNN
F 1 "BC337" H 2191 6155 50  0000 L CNN
F 2 "Package_TO_SOT_THT:TO-92_Inline" H 2200 6125 50  0001 L CIN
F 3 "https://diotec.com/tl_files/diotec/files/pdf/datasheets/bc337.pdf" H 2000 6200 50  0001 L CNN
	1    2000 6200
	-1   0    0    -1  
$EndComp
$Comp
L Device:R R1
U 1 1 5F369810
P 2500 6200
F 0 "R1" V 2293 6200 50  0000 C CNN
F 1 "1k" V 2384 6200 50  0000 C CNN
F 2 "Resistor_THT:R_Axial_DIN0204_L3.6mm_D1.6mm_P5.08mm_Horizontal" V 2430 6200 50  0001 C CNN
F 3 "~" H 2500 6200 50  0001 C CNN
	1    2500 6200
	0    1    1    0   
$EndComp
$Comp
L Device:Buzzer BZ1
U 1 1 5F369D4F
P 4350 1100
F 0 "BZ1" H 4355 775 50  0000 C CNN
F 1 "Buzzer" H 4355 866 50  0000 C CNN
F 2 "Buzzer_Beeper:Buzzer_12x9.5RM7.6" V 4325 1200 50  0001 C CNN
F 3 "~" V 4325 1200 50  0001 C CNN
	1    4350 1100
	-1   0    0    1   
$EndComp
$Comp
L Connector:Conn_01x03_Male J5
U 1 1 5F36CD05
P 3050 2050
F 0 "J5" H 3158 2331 50  0000 C CNN
F 1 "DS18B20 Sensors" H 3158 2240 50  0000 C CNN
F 2 "TerminalBlock:TerminalBlock_bornier-3_P5.08mm" H 3050 2050 50  0001 C CNN
F 3 "~" H 3050 2050 50  0001 C CNN
	1    3050 2050
	1    0    0    -1  
$EndComp
$Comp
L Device:R R6
U 1 1 5F36D2F4
P 3650 1800
F 0 "R6" H 3720 1846 50  0000 L CNN
F 1 "4k7" H 3720 1755 50  0000 L CNN
F 2 "Resistor_THT:R_Axial_DIN0204_L3.6mm_D1.6mm_P5.08mm_Horizontal" V 3580 1800 50  0001 C CNN
F 3 "~" H 3650 1800 50  0001 C CNN
	1    3650 1800
	1    0    0    -1  
$EndComp
$Comp
L Transistor_BJT:BC337 Q6
U 1 1 5F37975D
P 4750 1450
F 0 "Q6" H 4941 1496 50  0000 L CNN
F 1 "BC337" H 4941 1405 50  0000 L CNN
F 2 "Package_TO_SOT_THT:TO-92_Inline" H 4950 1375 50  0001 L CIN
F 3 "https://diotec.com/tl_files/diotec/files/pdf/datasheets/bc337.pdf" H 4750 1450 50  0001 L CNN
	1    4750 1450
	-1   0    0    -1  
$EndComp
$Comp
L Device:R R9
U 1 1 5F379763
P 5650 1450
F 0 "R9" V 5443 1450 50  0000 C CNN
F 1 "1k" V 5534 1450 50  0000 C CNN
F 2 "Resistor_THT:R_Axial_DIN0204_L3.6mm_D1.6mm_P5.08mm_Horizontal" V 5580 1450 50  0001 C CNN
F 3 "~" H 5650 1450 50  0001 C CNN
	1    5650 1450
	0    1    1    0   
$EndComp
$Comp
L Relay:SANYOU_SRD_Form_C K1
U 1 1 5F379FFD
P 1700 5550
F 0 "K1" H 1270 5504 50  0000 R CNN
F 1 "SANYOU_SRD_Form_C" H 1270 5595 50  0000 R CNN
F 2 "Relay_THT:Relay_SPDT_SANYOU_SRD_Series_Form_C" H 2150 5500 50  0001 L CNN
F 3 "http://www.sanyourelay.ca/public/products/pdf/SRD.pdf" H 1700 5550 50  0001 C CNN
	1    1700 5550
	-1   0    0    1   
$EndComp
$Comp
L Connector:Screw_Terminal_01x02 J1
U 1 1 5F37AF92
P 850 5200
F 0 "J1" H 768 4875 50  0000 C CNN
F 1 "Pump" H 768 4966 50  0000 C CNN
F 2 "TerminalBlock:TerminalBlock_bornier-2_P5.08mm" H 850 5200 50  0001 C CNN
F 3 "~" H 850 5200 50  0001 C CNN
	1    850  5200
	-1   0    0    1   
$EndComp
$Comp
L Connector:Screw_Terminal_01x02 J2
U 1 1 5F382DBB
P 1000 3000
F 0 "J2" H 918 2675 50  0000 C CNN
F 1 "Brew SSR" H 918 2766 50  0000 C CNN
F 2 "TerminalBlock:TerminalBlock_bornier-2_P5.08mm" H 1000 3000 50  0001 C CNN
F 3 "~" H 1000 3000 50  0001 C CNN
	1    1000 3000
	-1   0    0    1   
$EndComp
$Comp
L Transistor_BJT:BC337 Q2
U 1 1 5F384EFB
P 2150 3200
F 0 "Q2" H 2341 3246 50  0000 L CNN
F 1 "BC337" H 2341 3155 50  0000 L CNN
F 2 "Package_TO_SOT_THT:TO-92_Inline" H 2350 3125 50  0001 L CIN
F 3 "https://diotec.com/tl_files/diotec/files/pdf/datasheets/bc337.pdf" H 2150 3200 50  0001 L CNN
	1    2150 3200
	-1   0    0    -1  
$EndComp
$Comp
L Device:R R2
U 1 1 5F384F01
P 2650 3200
F 0 "R2" V 2443 3200 50  0000 C CNN
F 1 "1k" V 2534 3200 50  0000 C CNN
F 2 "Resistor_THT:R_Axial_DIN0204_L3.6mm_D1.6mm_P5.08mm_Horizontal" V 2580 3200 50  0001 C CNN
F 3 "~" H 2650 3200 50  0001 C CNN
	1    2650 3200
	0    1    1    0   
$EndComp
$Comp
L Connector:Screw_Terminal_01x02 J3
U 1 1 5F387E68
P 850 4000
F 0 "J3" H 768 3675 50  0000 C CNN
F 1 "Sparge SSR" H 768 3766 50  0000 C CNN
F 2 "TerminalBlock:TerminalBlock_bornier-2_P5.08mm" H 850 4000 50  0001 C CNN
F 3 "~" H 850 4000 50  0001 C CNN
	1    850  4000
	-1   0    0    1   
$EndComp
$Comp
L Transistor_BJT:BC337 Q3
U 1 1 5F387E6E
P 2000 4200
F 0 "Q3" H 2191 4246 50  0000 L CNN
F 1 "BC337" H 2191 4155 50  0000 L CNN
F 2 "Package_TO_SOT_THT:TO-92_Inline" H 2200 4125 50  0001 L CIN
F 3 "https://diotec.com/tl_files/diotec/files/pdf/datasheets/bc337.pdf" H 2000 4200 50  0001 L CNN
	1    2000 4200
	-1   0    0    -1  
$EndComp
$Comp
L Device:R R4
U 1 1 5F387E74
P 2650 4200
F 0 "R4" V 2443 4200 50  0000 C CNN
F 1 "1k" V 2534 4200 50  0000 C CNN
F 2 "Resistor_THT:R_Axial_DIN0204_L3.6mm_D1.6mm_P5.08mm_Horizontal" V 2580 4200 50  0001 C CNN
F 3 "~" H 2650 4200 50  0001 C CNN
	1    2650 4200
	0    1    1    0   
$EndComp
$Comp
L Connector:Conn_01x04_Male J4
U 1 1 5F38857D
P 4650 3450
F 0 "J4" H 4758 3731 50  0000 C CNN
F 1 "Display" H 4758 3640 50  0000 C CNN
F 2 "Connector_PinHeader_2.54mm:PinHeader_1x04_P2.54mm_Vertical" H 4650 3450 50  0001 C CNN
F 3 "~" H 4650 3450 50  0001 C CNN
	1    4650 3450
	1    0    0    -1  
$EndComp
$Comp
L Transistor_FET:BSS138 Q5
U 1 1 5F388DBB
P 7950 3500
F 0 "Q5" V 8199 3500 50  0000 C CNN
F 1 "BSS138" V 8290 3500 50  0000 C CNN
F 2 "Package_TO_SOT_SMD:SOT-23" H 8150 3425 50  0001 L CIN
F 3 "https://www.fairchildsemi.com/datasheets/BS/BSS138.pdf" H 7950 3500 50  0001 L CNN
	1    7950 3500
	0    -1   1    0   
$EndComp
$Comp
L Transistor_FET:BSS138 Q4
U 1 1 5F38A8C4
P 6750 3100
F 0 "Q4" V 6999 3100 50  0000 C CNN
F 1 "BSS138" V 7090 3100 50  0000 C CNN
F 2 "Package_TO_SOT_SMD:SOT-23" H 6950 3025 50  0001 L CIN
F 3 "https://www.fairchildsemi.com/datasheets/BS/BSS138.pdf" H 6750 3100 50  0001 L CNN
	1    6750 3100
	0    -1   1    0   
$EndComp
$Comp
L Device:R R8
U 1 1 5F38D62C
P 8300 3450
F 0 "R8" H 8230 3404 50  0000 R CNN
F 1 "10k" H 8230 3495 50  0000 R CNN
F 2 "Resistor_THT:R_Axial_DIN0204_L3.6mm_D1.6mm_P5.08mm_Horizontal" V 8230 3450 50  0001 C CNN
F 3 "~" H 8300 3450 50  0001 C CNN
	1    8300 3450
	-1   0    0    1   
$EndComp
$Comp
L Device:R R3
U 1 1 5F38DEC4
P 6400 3050
F 0 "R3" H 6330 3004 50  0000 R CNN
F 1 "10k" H 6330 3095 50  0000 R CNN
F 2 "Resistor_THT:R_Axial_DIN0204_L3.6mm_D1.6mm_P5.08mm_Horizontal" V 6330 3050 50  0001 C CNN
F 3 "~" H 6400 3050 50  0001 C CNN
	1    6400 3050
	-1   0    0    1   
$EndComp
$Comp
L power:+3.3V #PWR021
U 1 1 5F38EA3E
P 9100 1100
F 0 "#PWR021" H 9100 950 50  0001 C CNN
F 1 "+3.3V" H 9115 1273 50  0000 C CNN
F 2 "" H 9100 1100 50  0001 C CNN
F 3 "" H 9100 1100 50  0001 C CNN
	1    9100 1100
	1    0    0    -1  
$EndComp
$Comp
L power:+5V #PWR020
U 1 1 5F391E56
P 9000 2850
F 0 "#PWR020" H 9000 2700 50  0001 C CNN
F 1 "+5V" H 9015 3023 50  0000 C CNN
F 2 "" H 9000 2850 50  0001 C CNN
F 3 "" H 9000 2850 50  0001 C CNN
	1    9000 2850
	1    0    0    -1  
$EndComp
$Comp
L power:GND #PWR022
U 1 1 5F392815
P 10600 3100
F 0 "#PWR022" H 10600 2850 50  0001 C CNN
F 1 "GND" H 10605 2927 50  0000 C CNN
F 2 "" H 10600 3100 50  0001 C CNN
F 3 "" H 10600 3100 50  0001 C CNN
	1    10600 3100
	1    0    0    -1  
$EndComp
$Comp
L power:+5V #PWR03
U 1 1 5F3A93C4
P 1900 5050
F 0 "#PWR03" H 1900 4900 50  0001 C CNN
F 1 "+5V" H 1915 5223 50  0000 C CNN
F 2 "" H 1900 5050 50  0001 C CNN
F 3 "" H 1900 5050 50  0001 C CNN
	1    1900 5050
	1    0    0    -1  
$EndComp
$Comp
L power:GND #PWR019
U 1 1 5F3A93CA
P 7450 1750
F 0 "#PWR019" H 7450 1500 50  0001 C CNN
F 1 "GND" H 7455 1577 50  0000 C CNN
F 2 "" H 7450 1750 50  0001 C CNN
F 3 "" H 7450 1750 50  0001 C CNN
	1    7450 1750
	1    0    0    -1  
$EndComp
$Comp
L power:+5V #PWR01
U 1 1 5F3A98BE
P 1200 2650
F 0 "#PWR01" H 1200 2500 50  0001 C CNN
F 1 "+5V" H 1215 2823 50  0000 C CNN
F 2 "" H 1200 2650 50  0001 C CNN
F 3 "" H 1200 2650 50  0001 C CNN
	1    1200 2650
	1    0    0    -1  
$EndComp
$Comp
L power:GND #PWR010
U 1 1 5F3A98C4
P 3400 2200
F 0 "#PWR010" H 3400 1950 50  0001 C CNN
F 1 "GND" H 3405 2027 50  0000 C CNN
F 2 "" H 3400 2200 50  0001 C CNN
F 3 "" H 3400 2200 50  0001 C CNN
	1    3400 2200
	1    0    0    -1  
$EndComp
$Comp
L power:+5V #PWR02
U 1 1 5F3A9E88
P 1050 3600
F 0 "#PWR02" H 1050 3450 50  0001 C CNN
F 1 "+5V" H 1065 3773 50  0000 C CNN
F 2 "" H 1050 3600 50  0001 C CNN
F 3 "" H 1050 3600 50  0001 C CNN
	1    1050 3600
	1    0    0    -1  
$EndComp
$Comp
L power:GND #PWR04
U 1 1 5F3A9E8E
P 1900 6550
F 0 "#PWR04" H 1900 6300 50  0001 C CNN
F 1 "GND" H 1905 6377 50  0000 C CNN
F 2 "" H 1900 6550 50  0001 C CNN
F 3 "" H 1900 6550 50  0001 C CNN
	1    1900 6550
	1    0    0    -1  
$EndComp
$Comp
L power:GND #PWR05
U 1 1 5F3AA366
P 2050 3550
F 0 "#PWR05" H 2050 3300 50  0001 C CNN
F 1 "GND" H 2055 3377 50  0000 C CNN
F 2 "" H 2050 3550 50  0001 C CNN
F 3 "" H 2050 3550 50  0001 C CNN
	1    2050 3550
	1    0    0    -1  
$EndComp
$Comp
L power:+3.3V #PWR012
U 1 1 5F3AA7C4
P 3650 1500
F 0 "#PWR012" H 3650 1350 50  0001 C CNN
F 1 "+3.3V" H 3665 1673 50  0000 C CNN
F 2 "" H 3650 1500 50  0001 C CNN
F 3 "" H 3650 1500 50  0001 C CNN
	1    3650 1500
	1    0    0    -1  
$EndComp
$Comp
L power:+5V #PWR014
U 1 1 5F3AA7CA
P 4650 900
F 0 "#PWR014" H 4650 750 50  0001 C CNN
F 1 "+5V" H 4665 1073 50  0000 C CNN
F 2 "" H 4650 900 50  0001 C CNN
F 3 "" H 4650 900 50  0001 C CNN
	1    4650 900 
	1    0    0    -1  
$EndComp
$Comp
L power:GND #PWR015
U 1 1 5F3AA7D0
P 4650 1750
F 0 "#PWR015" H 4650 1500 50  0001 C CNN
F 1 "GND" H 4655 1577 50  0000 C CNN
F 2 "" H 4650 1750 50  0001 C CNN
F 3 "" H 4650 1750 50  0001 C CNN
	1    4650 1750
	1    0    0    -1  
$EndComp
Wire Wire Line
	9200 2450 8900 2450
Wire Wire Line
	8900 2450 8900 3100
Wire Wire Line
	8900 3100 10600 3100
Wire Wire Line
	10600 3100 10600 1750
Wire Wire Line
	10600 1750 10350 1750
Connection ~ 10600 3100
Wire Wire Line
	10600 1750 10600 1150
Wire Wire Line
	10600 1150 10350 1150
Connection ~ 10600 1750
Wire Wire Line
	9200 2950 9000 2950
Wire Wire Line
	9000 2950 9000 2850
Wire Wire Line
	9200 1150 9100 1150
Wire Wire Line
	9100 1150 9100 1100
Wire Wire Line
	4650 900  4650 1000
Wire Wire Line
	4650 1000 4450 1000
Wire Wire Line
	4450 1200 4650 1200
Wire Wire Line
	4650 1200 4650 1250
Wire Wire Line
	4650 1650 4650 1750
Wire Wire Line
	9200 1350 7300 1350
Wire Wire Line
	9200 1550 7300 1550
Wire Wire Line
	7300 1650 9200 1650
Wire Wire Line
	7300 1750 7450 1750
$Comp
L Connector:Conn_01x05_Male J7
U 1 1 5F36C094
P 7100 1550
F 0 "J7" H 7208 1931 50  0000 C CNN
F 1 "Keypad" H 7208 1840 50  0000 C CNN
F 2 "Connector_PinHeader_2.54mm:PinHeader_1x05_P2.54mm_Vertical" H 7100 1550 50  0001 C CNN
F 3 "~" H 7100 1550 50  0001 C CNN
	1    7100 1550
	1    0    0    -1  
$EndComp
Wire Wire Line
	5500 1450 4950 1450
Wire Wire Line
	7300 1450 9200 1450
Wire Wire Line
	9200 1950 5800 1950
Wire Wire Line
	5800 1450 5800 1950
Wire Wire Line
	3650 1500 3650 1650
Wire Wire Line
	3650 1950 3250 1950
Wire Wire Line
	3250 2150 3400 2150
Wire Wire Line
	3400 2150 3400 2200
Wire Wire Line
	3250 2050 9200 2050
Wire Wire Line
	1900 5050 1900 5200
Wire Wire Line
	1900 5850 1900 5950
Wire Wire Line
	2200 6200 2350 6200
Wire Wire Line
	1900 6550 1900 6400
Wire Wire Line
	2800 3200 3800 3200
Wire Wire Line
	3800 3200 3800 2150
Wire Wire Line
	3800 2150 9200 2150
Wire Wire Line
	1050 5100 1500 5100
Wire Wire Line
	1500 5100 1500 5250
Wire Wire Line
	1050 5200 1050 5950
Wire Wire Line
	1050 5950 1400 5950
Wire Wire Line
	1400 5950 1400 5850
Wire Wire Line
	1200 2650 1200 2900
Wire Wire Line
	1200 3000 2050 3000
Wire Wire Line
	2350 3200 2500 3200
Wire Wire Line
	2050 3400 2050 3550
Wire Wire Line
	2800 4200 3950 4200
Wire Wire Line
	3950 4200 3950 2250
Wire Wire Line
	3950 2250 9200 2250
$Comp
L power:+3.3V #PWR011
U 1 1 5F5AF2B3
P 7100 2800
F 0 "#PWR011" H 7100 2650 50  0001 C CNN
F 1 "+3.3V" H 7115 2973 50  0000 C CNN
F 2 "" H 7100 2800 50  0001 C CNN
F 3 "" H 7100 2800 50  0001 C CNN
	1    7100 2800
	1    0    0    -1  
$EndComp
$Comp
L power:+5V #PWR07
U 1 1 5F5AF2B9
P 5700 3100
F 0 "#PWR07" H 5700 2950 50  0001 C CNN
F 1 "+5V" H 5715 3273 50  0000 C CNN
F 2 "" H 5700 3100 50  0001 C CNN
F 3 "" H 5700 3100 50  0001 C CNN
	1    5700 3100
	1    0    0    -1  
$EndComp
$Comp
L power:GND #PWR06
U 1 1 5F5AF2BF
P 1900 4550
F 0 "#PWR06" H 1900 4300 50  0001 C CNN
F 1 "GND" H 1905 4377 50  0000 C CNN
F 2 "" H 1900 4550 50  0001 C CNN
F 3 "" H 1900 4550 50  0001 C CNN
	1    1900 4550
	1    0    0    -1  
$EndComp
$Comp
L power:+3.3V #PWR016
U 1 1 5F5B05DA
P 8300 3200
F 0 "#PWR016" H 8300 3050 50  0001 C CNN
F 1 "+3.3V" H 8315 3373 50  0000 C CNN
F 2 "" H 8300 3200 50  0001 C CNN
F 3 "" H 8300 3200 50  0001 C CNN
	1    8300 3200
	1    0    0    -1  
$EndComp
$Comp
L power:+5V #PWR09
U 1 1 5F5B05E0
P 6400 2800
F 0 "#PWR09" H 6400 2650 50  0001 C CNN
F 1 "+5V" H 6415 2973 50  0000 C CNN
F 2 "" H 6400 2800 50  0001 C CNN
F 3 "" H 6400 2800 50  0001 C CNN
	1    6400 2800
	1    0    0    -1  
$EndComp
$Comp
L power:GND #PWR08
U 1 1 5F5B05E6
P 5700 3850
F 0 "#PWR08" H 5700 3600 50  0001 C CNN
F 1 "GND" H 5705 3677 50  0000 C CNN
F 2 "" H 5700 3850 50  0001 C CNN
F 3 "" H 5700 3850 50  0001 C CNN
	1    5700 3850
	1    0    0    -1  
$EndComp
$Comp
L power:+5V #PWR013
U 1 1 5F5B2A81
P 7600 3200
F 0 "#PWR013" H 7600 3050 50  0001 C CNN
F 1 "+5V" H 7615 3373 50  0000 C CNN
F 2 "" H 7600 3200 50  0001 C CNN
F 3 "" H 7600 3200 50  0001 C CNN
	1    7600 3200
	1    0    0    -1  
$EndComp
Wire Wire Line
	1050 3600 1050 3900
Wire Wire Line
	1050 4000 1900 4000
Wire Wire Line
	1900 4400 1900 4550
Wire Wire Line
	2200 4200 2500 4200
Wire Wire Line
	4100 6200 4100 2350
Wire Wire Line
	4100 2350 9200 2350
Wire Wire Line
	4850 3350 5700 3350
Wire Wire Line
	5700 3350 5700 3100
Wire Wire Line
	4850 3650 5700 3650
Wire Wire Line
	5700 3650 5700 3850
Wire Wire Line
	6400 3200 6550 3200
Wire Wire Line
	6400 2900 6400 2800
Wire Wire Line
	6950 3200 7100 3200
Wire Wire Line
	7100 2900 6750 2900
Wire Wire Line
	7100 2900 7100 2800
Connection ~ 7100 2900
Wire Wire Line
	4850 3450 6400 3450
Wire Wire Line
	6400 3450 6400 3200
Connection ~ 6400 3200
Wire Wire Line
	4850 3550 6400 3550
Wire Wire Line
	6400 3550 6400 3600
Wire Wire Line
	6400 3600 7600 3600
Wire Wire Line
	7750 3600 7600 3600
Connection ~ 7600 3600
Wire Wire Line
	7600 3300 7600 3200
Wire Wire Line
	7950 3300 8300 3300
Wire Wire Line
	8300 3300 8300 3200
Connection ~ 8300 3300
Wire Wire Line
	2650 6200 4100 6200
$Comp
L Diode:1N4148 D1
U 1 1 5F7FDF42
P 2300 5350
F 0 "D1" V 2254 5430 50  0000 L CNN
F 1 "1N4148" V 2345 5430 50  0000 L CNN
F 2 "Diode_THT:D_DO-35_SOD27_P7.62mm_Horizontal" H 2300 5175 50  0001 C CNN
F 3 "https://assets.nexperia.com/documents/data-sheet/1N4148_1N4448.pdf" H 2300 5350 50  0001 C CNN
	1    2300 5350
	0    1    1    0   
$EndComp
Wire Wire Line
	2300 5200 1900 5200
Connection ~ 1900 5200
Wire Wire Line
	1900 5200 1900 5250
Wire Wire Line
	2300 5500 2300 5950
Wire Wire Line
	2300 5950 1900 5950
Connection ~ 1900 5950
Wire Wire Line
	1900 5950 1900 6000
Wire Wire Line
	7100 3200 7500 3200
Wire Wire Line
	7500 3200 7500 2450
Wire Wire Line
	7500 2450 8300 2450
Wire Wire Line
	8300 2450 8300 1750
Wire Wire Line
	8300 1750 9200 1750
Connection ~ 7100 3200
Wire Wire Line
	8600 3600 8600 1850
Wire Wire Line
	8600 1850 9200 1850
Wire Wire Line
	8150 3600 8300 3600
Connection ~ 8300 3600
Wire Wire Line
	8300 3600 8600 3600
$Comp
L Device:R R5
U 1 1 5F38DA72
P 7100 3050
F 0 "R5" H 7030 3004 50  0000 R CNN
F 1 "10k" H 7030 3095 50  0000 R CNN
F 2 "Resistor_THT:R_Axial_DIN0204_L3.6mm_D1.6mm_P5.08mm_Horizontal" V 7030 3050 50  0001 C CNN
F 3 "~" H 7100 3050 50  0001 C CNN
	1    7100 3050
	-1   0    0    1   
$EndComp
$Comp
L Device:R R7
U 1 1 5F38E2BF
P 7600 3450
F 0 "R7" H 7530 3404 50  0000 R CNN
F 1 "10k" H 7530 3495 50  0000 R CNN
F 2 "Resistor_THT:R_Axial_DIN0204_L3.6mm_D1.6mm_P5.08mm_Horizontal" V 7530 3450 50  0001 C CNN
F 3 "~" H 7600 3450 50  0001 C CNN
	1    7600 3450
	-1   0    0    1   
$EndComp
$EndSCHEMATC
